tree("Root")
	sequence
		//random
		//vira o npc para olhar em volta
		random(5,1,1,1)
			Turn(90.0)
			Turn(-90.0)
			Turn(145.0)
			Turn(-27.0)
		LookAtTarget

		//NÃO FUNCIONOU >> "WaitRandom tem argumentos demais"
		WaitRandom(2.0,5.0)
